Introduction to clustermole
…
You can install clustermole from CRAN.

install.packages("clustermole")

Load clustermole.

library(clustermole)

Retrieve cell type markers

You can use clustermole as a simple database and get a data frame of all cell type markers.

markers <- clustermole_markers(species = "hs")
markers
#> # A tibble: 422,292 x 8
#>    celltype_full      db     species organ  celltype   n_genes gene_origi… gene 
#>    <chr>              <chr>  <chr>   <chr>  <chr>        <int> <chr>       <chr>
#>  1 1-cell stage cell… CellM… Human   Embryo 1-cell st…      32 ACCSL       ACCSL
#>  2 1-cell stage cell… CellM… Human   Embryo 1-cell st…      32 ACVR1B      ACVR…
#>  3 1-cell stage cell… CellM… Human   Embryo 1-cell st…      32 ASF1B       ASF1B
#>  4 1-cell stage cell… CellM… Human   Embryo 1-cell st…      32 BCL2L10     BCL2…
#>  5 1-cell stage cell… CellM… Human   Embryo 1-cell st…      32 BLCAP       BLCAP
#>  6 1-cell stage cell… CellM… Human   Embryo 1-cell st…      32 CASC3       CASC3
#>  7 1-cell stage cell… CellM… Human   Embryo 1-cell st…      32 CLEC10A     CLEC…
#>  8 1-cell stage cell… CellM… Human   Embryo 1-cell st…      32 CNOT11      CNOT…
#>  9 1-cell stage cell… CellM… Human   Embryo 1-cell st…      32 DCLK2       DCLK2
#> 10 1-cell stage cell… CellM… Human   Embryo 1-cell st…      32 DHCR7       DHCR7
#> # … with 422,282 more rows
…
